Le package prenoms | Marc-André Désautels
…
Une base de données sous la forme d’un tibble sera maintenant accessible sous le noms de prenoms.

glimpse(prenoms)

## Rows: 769,890
## Columns: 4
## $ year <int> 1980, 1980, 1980, 1980, 1980, 1980, 1980, 1980, 1980, 1980, 1980,~
## $ sex  <chr> "F", "F", "F", "F", "F", "F", "F", "F", "F", "F", "F", "F", "F", ~
## $ name <chr> "A-Catherine", "A-Christiane", "A-Fernanda", "A-Genevieve", "A Ch~
## $ n    <int> 2, 1, 1, 1, 1, 1, 2, 1, 1, 1, 1, 1, 2, 1, 1, 1, 1, 1, 2, 1, 1, 1,~

prenoms

## # A tibble: 769,890 x 4
##     year sex   name             n
##    <int> <chr> <chr>        <int>
##  1  1980 F     A-Catherine      2
##  2  1980 F     A-Christiane     1
##  3  1980 F     A-Fernanda       1
##  4  1980 F     A-Genevieve      1
##  5  1980 F     A Charlotte      1
##  6  1980 F     A Dominique      1
##  7  1980 F     A Elisabeth      2
##  8  1980 F     A Francoise      1
##  9  1980 F     A Icha           1
## 10  1980 F     A Maria          1
## # ... with 769,880 more rows
…
