…
Une base de données sous la forme d’un tibble sera maintenant accessible sous le noms de onbabynames.

glimpse(onbabynames)

## Rows: 161,703
## Columns: 4
## $ year <int> 1913, 1913, 1914, 1914, 1914, 1915, 1915, 1915, 1915, 1915, 1916,~
## $ sex  <chr> "F", "F", "F", "F", "F", "F", "F", "F", "F", "F", "F", "F", "F", ~
## $ name <chr> "Margaret", "Mary", "Gladys", "Margaret", "Mary", "Dorothy", "Mar~
## $ n    <int> 6, 7, 6, 9, 9, 9, 13, 10, 7, 7, 6, 8, 10, 6, 14, 12, 12, 7, 89, 6~

onbabynames

## # A tibble: 161,703 x 4
##     year sex   name         n
##    <int> <chr> <chr>    <int>
##  1  1913 F     Margaret     6
##  2  1913 F     Mary         7
##  3  1914 F     Gladys       6
##  4  1914 F     Margaret     9
##  5  1914 F     Mary         9
##  6  1915 F     Dorothy      9
##  7  1915 F     Margaret    13
##  8  1915 F     Marie       10
##  9  1915 F     Mary         7
## 10  1915 F     Ruth         7
## # ... with 161,693 more rows
…
